{
  "type": "service_account",
  "project_id": "brandijacksongolfrecruitcaddy",
  "private_key_id": "ff392e02c77c1e0e6dc6443034456e2eb7f4a41a",
  "private_key": "-----BEGIN PRIVATE KEY-----\nMIIEvQIBADANBgkqhkiG9w0BAQEFAASCBKcwggSjAgEAAoIBAQDJn9UjV8GJO1/K\nTHysHd3FHx+eTKhcow7OuEoIDiXYaVU8LPD12IiyewrfXnAXuNNeDrH51/51UdCJ\n7X9MElRGuvNo6Zd4C03sw62dH15Bfs+yB03slAmtPKl2PbuEWONz7mSqbJGgZJDv\nZ3J67FUTVuzf+G11r9o0O3JVvHM6hIzFef66e8XLKz7l9DnbzSL867cqeCVzj10t\nN3H2mTypRP2Jtr+VWI97qkOA6/MllMvgHVS84/15X4EoFqnY5at3ynpcO3sokrTm\nCTjV0ckX7JYjtarwqU5UDZhK9Uvh0TLEvL+Rqj8623FJiJN5lVclYlFQekA9sO8M\ntVHWku4DAgMBAAECggEAAigYgolEw7AD5UkOKFUlcx9TGkFdp6gC14k3GYD1PKxb\nwgoFBcwsIiSYyCzdbBOJBz+G/dImoaCfZ2pH60ti5WLIib295gXQ7pBlQgH84xx1\nIkVbuwUWWWkFswMUB2VgAXRyVTRWFm4c8sKbgd8XRd6vJ/IjUZfw8JAWN/6NCPov\nHGMPcxM1GfZ0iTwbl056khfbomq25/yfPC9cA+OXFczORm8Rgau4vAOsZ6NWNDQ5\nMuGplGHpCqvHNe+eyHVa0XPE1LxiNdHF3bzrYZ2rXSYVOO0OY/Bkvq6KZKrWJQ76\nKgJaY9WJF8UNmgn6XLewykT7j/g/8s8qoKVGc96piQKBgQDylRDd/uohwm4xLnA1\nGMJw6Pmg1xkKQXsQXK+yttYY4HM2qeXlWrL9u0BxVWasggxxwxkXD0kNr17Ebcus\nf9ZAgkIWI72PF5XyxRd7XsDWCL0VHaXucGeOMJ8uMALQvyhQk6ipDw+UAn4QCB2j\nI1H/RNyYZ+D1WQHeUXgT7aBbTQKBgQDUxs62DAlcB3CL0k4IoLAsNWMH+5kNyubv\nZU/Mq6NgoQ2kF+4W8kFbzK5S+B9x5jTw5knTBoiFq8H3oMqLYQtMt/dOfW9ViGlV\n2FlpRnoh3tEmFmS17eS963PdbiCQWtrVajmOlxUI9pOobzhlT04dGHrT80IKmQwH\nq5JLu/ymjwKBgQCoqv0PXi9tScNUbvWV9aE84MCxFN5UQzNOLSP9HyO+KFHzsC4p\nSucphQlJxBef2szMTNslLXueCFHcQntbdYeDUw6gVjl3RO793gx1u2xZZboS9Ipr\nP7zBIQ2ND9TlUAS4AfNDmTU7tH/ypbH1vJlG5Jp9Xb0M2tZxvjO/p3nYAQKBgCJa\nWsNvnA88sEIS2UBxWSA6GlwOlf5xFOnvzHt59q3CMuacandP85dzq21/2+vSxBdk\nxuSIOICEY5OsZSctqtpfFVGZ1ODVXlRa0sy5cTyIsfHZSbdJylWTbyiAAEfuM0ij\nltlbsSy6Ssq18kABFtaBvkr8ClyVqyiN3dfWaQsnAoGAI587kwZ7Q95XOT0hepDe\nV9FNJTK0NCTAH4z/5Lq96MWgc7LWd6jdUmByZitWoZZuN7xSuRVFm6Qep3MO/LlY\n6lDpm96i4BnuVvUmcgS9x0ab2WV9c+h9W2nu9FT8+XlXV8p1nQa/l70DFJnURyUb\naNXutXhyleojopZLvGZaSlE=\n-----END PRIVATE KEY-----\n",
  "client_email": "firebase-adminsdk-y50nr@brandijacksongolfrecruitcaddy.iam.gserviceaccount.com",
  "client_id": "109873028455094432393",
  "auth_uri": "https://accounts.google.com/o/oauth2/auth",
  "token_uri": "https://oauth2.googleapis.com/token",
  "auth_provider_x509_cert_url": "https://www.googleapis.com/oauth2/v1/certs",
  "client_x509_cert_url": "https://www.googleapis.com/robot/v1/metadata/x509/firebase-adminsdk-y50nr%40brandijacksongolfrecruitcaddy.iam.gserviceaccount.com"
}
